master/led_dac_adc_work/libero/Mayak_DAC_ADC/synthesis/synthesis_1/IICE.vcd
$date
Tue Mar 15 19:14:26 2016
$end
$version
Identify 1.1
$end
$timescale
1 ns
$end
$comment
{Identify created VCD dump}
$end
$scope module build $end
$var integer 32 cyc identify_cycle       $end
$var reg     1  clk identify_sampleclock $end
$scope module led_igloo_0 $end
$var reg 1 A fab_clk_8MHz $end
$var reg 1 B temp_sck $end
$var reg 1 C temp3_csn $end
$var reg 1 D temp2_csn $end
$var reg 1 E temp1_csn $end
$var reg 1 F temp_so $end
$var reg 15 G BW[14:0] $end
$var reg 15 H BW_out[14:0] $end
$var reg 9 I dac1_db[13:5] $end
$var reg 8 J fr_adc_count[7:0] $end
$var reg 32 K freq[31:0] $end
$var reg 9 L dac_count[8:0] $end
$var reg 1 M clk_dac2 $end
$var reg 1 N clk_dac1 $end
$var reg 12 O data_from_adc[0][11:0] $end
$var reg 12 P data_from_adc[1][11:0] $end
$var reg 12 Q data_from_adc[2][11:0] $end
$var reg 12 R data_from_adc[3][11:0] $end
$var reg 12 S data_from_adc[4][11:0] $end
$var reg 12 T data_from_adc[5][11:0] $end
$var reg 12 U data_from_adc[6][11:0] $end
$var reg 12 V data_from_adc[7][11:0] $end
$var reg 12 W data_from_adc[8][11:0] $end
$var reg 2 X sdv_count[1:0] $end
$var reg 8 Y fr_dac_count[7:0] $end
$var reg 8 Z dds_cos[7:0] $end
$var reg 8 AB dds_sin[7:0] $end
$var reg 15 BB fpga_count[14:0] $end
$var reg 15 CB fpga_shift_2[14:0] $end
$var reg 32 DB temp_count[31:0] $end
$var reg 5 EB temp_count_data[4:0] $end
$var reg 16 FB temp1[15:0] $end
$var reg 16 GB temp2[15:0] $end
$var reg 16 HB temp3[15:0] $end
$var reg 32 IB time_sens[31:0] $end
$upscope $end
$upscope $end
$enddefinitions $end
#0
1clk
b11111111111111111111111110011011 cyc
0A
0B
1C
1D
1E
1F
b100111101000000 G
b100111101000001 H
b001000000 I
b00111100 J
b00000000001010100001001000000000 K
b000111100 L
1M
0N
b111111111111 O
b111011111111 P
b111111111111 Q
b111110111111 R
b111111111011 S
b111111111110 T
b111111111111 U
b111111111110 V
b111111111111 W
b01 X
b00111100 Y
b01000000 Z
b00000000 AB
b100111101000010 BB
b100111101000000 CB
b00000000001010100001000111001111 DB
b00000 EB
b0001001001100000 FB
b0001000110001000 GB
b0000111110101000 HB
b00000000001010100001001000000000 IB
#10
0clk
#20
1clk
b11111111111111111111111110011100 cyc
1A
1B
b100111101000001 G
b100111101000010 H
1N
b10 X
b00000110 Z
b01000000 AB
b100111101000011 BB
b100111101000001 CB
b00000000001010100001000111010000 DB
#30
0clk
#40
1clk
b11111111111111111111111110011101 cyc
0A
0B
b100111101000010 G
b100111101000011 H
b101000000 I
0M
b11 X
b100111101000100 BB
b100111101000010 CB
#50
0clk
#60
1clk
b11111111111111111111111110011110 cyc
1A
1B
b100111101000011 G
b100111101000100 H
1M
b00 X
b100111101000101 BB
b100111101000011 CB
b00000000001010100001000111010001 DB
#70
0clk
#80
1clk
b11111111111111111111111110011111 cyc
0A
0B
b100111101000100 G
b100111101000101 H
b000000110 I
b001111000 L
0N
b01 X
b100111101000110 BB
b100111101000100 CB
#90
0clk
#100
1clk
b11111111111111111111111110100000 cyc
1A
1B
b100111101000101 G
b100111101000110 H
1N
b10 X
b11000001 Z
b00001100 AB
b100111101000111 BB
b100111101000101 CB
b00000000001010100001000111010010 DB
#110
0clk
#120
1clk
b11111111111111111111111110100001 cyc
0A
0B
b100111101000110 G
b100111101000111 H
b000001100 I
0M
b11 X
b100111101001000 BB
b100111101000110 CB
#130
0clk
#140
1clk
b11111111111111111111111110100010 cyc
1A
1B
b100111101000111 G
b100111101001000 H
1M
b00 X
b100111101001001 BB
b100111101000111 CB
b00000000001010100001000111010011 DB
#150
0clk
#160
1clk
b11111111111111111111111110100011 cyc
0A
0B
b100111101001000 G
b100111101001001 H
b011000001 I
b010110100 L
0N
b01 X
b100111101001010 BB
b100111101001000 CB
#170
0clk
#180
1clk
b11111111111111111111111110100100 cyc
1A
1B
b100111101001001 G
b100111101001010 H
1N
b10 X
b11101101 Z
b11000011 AB
b100111101001011 BB
b100111101001001 CB
b00000000001010100001000111010100 DB
#190
0clk
#200
1clk
b11111111111111111111111110100101 cyc
0A
0B
b100111101001010 G
b100111101001011 H
b011000011 I
0M
b11 X
b100111101001100 BB
b100111101001010 CB
#210
0clk
#220
1clk
b11111111111111111111111110100110 cyc
1A
1B
b100111101001011 G
b100111101001100 H
1M
b00 X
b100111101001101 BB
b100111101001011 CB
b00000000001010100001000111010101 DB
#230
0clk
#240
1clk
b11111111111111111111111110100111 cyc
0A
0B
b100111101001100 G
b100111101001101 H
b011101101 I
b011110000 L
0N
b01 X
b100111101001110 BB
b100111101001100 CB
#250
0clk
#260
1clk
b11111111111111111111111110101000 cyc
1A
1B
b100111101001101 G
b100111101001110 H
1N
b10 X
b00111011 Z
b11101000 AB
b100111101001111 BB
b100111101001101 CB
b00000000001010100001000111010110 DB
#270
0clk
#280
1clk
b11111111111111111111111110101001 cyc
0A
0B
b100111101001110 G
b100111101001111 H
b011101000 I
0M
b11 X
b100111101010000 BB
b100111101001110 CB
#290
0clk
#300
1clk
b11111111111111111111111110101010 cyc
1A
1B
b100111101001111 G
b100111101010000 H
1M
b00 X
b100111101010001 BB
b100111101001111 CB
b00000000001010100001000111010111 DB
#310
0clk
#320
1clk
b11111111111111111111111110101011 cyc
0A
0B
b100111101010000 G
b100111101010001 H
b000111011 I
b000000000 L
0N
b01 X
b100111101010010 BB
b100111101010000 CB
#330
0clk
#340
1clk
b11111111111111111111111110101100 cyc
1A
1B
b100111101010001 G
b100111101010010 H
1N
b10 X
b01000000 Z
b00000000 AB
b100111101010011 BB
b100111101010001 CB
b00000000001010100001000111011000 DB
#350
0clk
#360
1clk
b11111111111111111111111110101101 cyc
0A
0B
b100111101010010 G
b100111101010011 H
b100000000 I
0M
b11 X
b100111101010100 BB
b100111101010010 CB
#370
0clk
#380
1clk
b11111111111111111111111110101110 cyc
1A
1B
b100111101010011 G
b100111101010100 H
1M
b00 X
b100111101010101 BB
b100111101010011 CB
b00000000001010100001000111011001 DB
#390
0clk
#400
1clk
b11111111111111111111111110101111 cyc
0A
0B
b100111101010100 G
b100111101010101 H
b001000000 I
b000111100 L
0N
b01 X
b100111101010110 BB
b100111101010100 CB
#410
0clk
#420
1clk
b11111111111111111111111110110000 cyc
1A
1B
b100111101010101 G
b100111101010110 H
1N
b10 X
b00000110 Z
b01000000 AB
b100111101010111 BB
b100111101010101 CB
b00000000001010100001000111011010 DB
#430
0clk
#440
1clk
b11111111111111111111111110110001 cyc
0A
0B
b100111101010110 G
b100111101010111 H
b101000000 I
0M
b11 X
b100111101011000 BB
b100111101010110 CB
#450
0clk
#460
1clk
b11111111111111111111111110110010 cyc
1A
1B
b100111101010111 G
b100111101011000 H
1M
b00 X
b100111101011001 BB
b100111101010111 CB
b00000000001010100001000111011011 DB
#470
0clk
#480
1clk
b11111111111111111111111110110011 cyc
0A
0B
b100111101011000 G
b100111101011001 H
b000000110 I
b001111000 L
0N
b01 X
b100111101011010 BB
b100111101011000 CB
#490
0clk
#500
1clk
b11111111111111111111111110110100 cyc
1A
1B
b100111101011001 G
b100111101011010 H
1N
b10 X
b11000001 Z
b00001100 AB
b100111101011011 BB
b100111101011001 CB
b00000000001010100001000111011100 DB
#510
0clk
#520
1clk
b11111111111111111111111110110101 cyc
0A
0B
b100111101011010 G
b100111101011011 H
b000001100 I
0M
b11 X
b100111101011100 BB
b100111101011010 CB
#530
0clk
#540
1clk
b11111111111111111111111110110110 cyc
1A
1B
b100111101011011 G
b100111101011100 H
1M
b00 X
b100111101011101 BB
b100111101011011 CB
b00000000001010100001000111011101 DB
#550
0clk
#560
1clk
b11111111111111111111111110110111 cyc
0A
0B
b100111101011100 G
b100111101011101 H
b011000001 I
b010110100 L
0N
b01 X
b100111101011110 BB
b100111101011100 CB
#570
0clk
#580
1clk
b11111111111111111111111110111000 cyc
1A
1B
b100111101011101 G
b100111101011110 H
1N
b10 X
b11101101 Z
b11000011 AB
b100111101011111 BB
b100111101011101 CB
b00000000001010100001000111011110 DB
#590
0clk
#600
1clk
b11111111111111111111111110111001 cyc
0A
0B
b100111101011110 G
b100111101011111 H
b011000011 I
0M
b11 X
b100111101100000 BB
b100111101011110 CB
#610
0clk
#620
1clk
b11111111111111111111111110111010 cyc
1A
1B
b100111101011111 G
b100111101100000 H
1M
b00 X
b100111101100001 BB
b100111101011111 CB
b00000000001010100001000111011111 DB
#630
0clk
#640
1clk
b11111111111111111111111110111011 cyc
0A
0B
b100111101100000 G
b100111101100001 H
b011101101 I
b011110000 L
0N
b01 X
b100111101100010 BB
b100111101100000 CB
#650
0clk
#660
1clk
b11111111111111111111111110111100 cyc
1A
1B
b100111101100001 G
b100111101100010 H
1N
b10 X
b00111011 Z
b11101000 AB
b100111101100011 BB
b100111101100001 CB
b00000000001010100001000111100000 DB
#670
0clk
#680
1clk
b11111111111111111111111110111101 cyc
0A
0B
b100111101100010 G
b100111101100011 H
b011101000 I
0M
b11 X
b100111101100100 BB
b100111101100010 CB
#690
0clk
#700
1clk
b11111111111111111111111110111110 cyc
1A
1B
b100111101100011 G
b100111101100100 H
1M
b00 X
b100111101100101 BB
b100111101100011 CB
b00000000001010100001000111100001 DB
#710
0clk
#720
1clk
b11111111111111111111111110111111 cyc
0A
0B
b100111101100100 G
b100111101100101 H
b000111011 I
b000000000 L
0N
b01 X
b100111101100110 BB
b100111101100100 CB
#730
0clk
#740
1clk
b11111111111111111111111111000000 cyc
1A
1B
b100111101100101 G
b100111101100110 H
1N
b10 X
b01000000 Z
b00000000 AB
b100111101100111 BB
b100111101100101 CB
b00000000001010100001000111100010 DB
#750
0clk
#760
1clk
b11111111111111111111111111000001 cyc
0A
0B
b100111101100110 G
b100111101100111 H
b100000000 I
0M
b11 X
b100111101101000 BB
b100111101100110 CB
#770
0clk
#780
1clk
b11111111111111111111111111000010 cyc
1A
1B
b100111101100111 G
b100111101101000 H
1M
b00 X
b100111101101001 BB
b100111101100111 CB
b00000000001010100001000111100011 DB
#790
0clk
#800
1clk
b11111111111111111111111111000011 cyc
0A
0B
b100111101101000 G
b100111101101001 H
b001000000 I
b000111100 L
0N
b01 X
b100111101101010 BB
b100111101101000 CB
#810
0clk
#820
1clk
b11111111111111111111111111000100 cyc
1A
1B
b100111101101001 G
b100111101101010 H
1N
b10 X
b00000110 Z
b01000000 AB
b100111101101011 BB
b100111101101001 CB
b00000000001010100001000111100100 DB
#830
0clk
#840
1clk
b11111111111111111111111111000101 cyc
0A
0B
b100111101101010 G
b100111101101011 H
b101000000 I
0M
b11 X
b100111101101100 BB
b100111101101010 CB
#850
0clk
#860
1clk
b11111111111111111111111111000110 cyc
1A
1B
b100111101101011 G
b100111101101100 H
1M
b00 X
b100111101101101 BB
b100111101101011 CB
b00000000001010100001000111100101 DB
#870
0clk
#880
1clk
b11111111111111111111111111000111 cyc
0A
0B
b100111101101100 G
b100111101101101 H
b000000110 I
b001111000 L
0N
b01 X
b100111101101110 BB
b100111101101100 CB
#890
0clk
#900
1clk
b11111111111111111111111111001000 cyc
1A
1B
b100111101101101 G
b100111101101110 H
1N
b10 X
b11000001 Z
b00001100 AB
b100111101101111 BB
b100111101101101 CB
b00000000001010100001000111100110 DB
#910
0clk
#920
1clk
b11111111111111111111111111001001 cyc
0A
0B
b100111101101110 G
b100111101101111 H
b000001100 I
0M
b11 X
b100111101110000 BB
b100111101101110 CB
#930
0clk
#940
1clk
b11111111111111111111111111001010 cyc
1A
1B
b100111101101111 G
b100111101110000 H
1M
b00 X
b100111101110001 BB
b100111101101111 CB
b00000000001010100001000111100111 DB
#950
0clk
#960
1clk
b11111111111111111111111111001011 cyc
0A
0B
b100111101110000 G
b100111101110001 H
b011000001 I
b010110100 L
0N
b01 X
b100111101110010 BB
b100111101110000 CB
#970
0clk
#980
1clk
b11111111111111111111111111001100 cyc
1A
1B
b100111101110001 G
b100111101110010 H
1N
b10 X
b11101101 Z
b11000011 AB
b100111101110011 BB
b100111101110001 CB
b00000000001010100001000111101000 DB
#990
0clk
#1000
1clk
b11111111111111111111111111001101 cyc
0A
0B
b100111101110010 G
b100111101110011 H
b011000011 I
0M
b11 X
b100111101110100 BB
b100111101110010 CB
#1010
0clk
#1020
1clk
b11111111111111111111111111001110 cyc
1A
1B
b100111101110011 G
b100111101110100 H
1M
b00 X
b100111101110101 BB
b100111101110011 CB
b00000000001010100001000111101001 DB
#1030
0clk
#1040
1clk
b11111111111111111111111111001111 cyc
0A
0B
b100111101110100 G
b100111101110101 H
b011101101 I
b011110000 L
0N
b01 X
b100111101110110 BB
b100111101110100 CB
#1050
0clk
#1060
1clk
b11111111111111111111111111010000 cyc
1A
1B
b100111101110101 G
b100111101110110 H
1N
b10 X
b00111011 Z
b11101000 AB
b100111101110111 BB
b100111101110101 CB
b00000000001010100001000111101010 DB
#1070
0clk
#1080
1clk
b11111111111111111111111111010001 cyc
0A
0B
b100111101110110 G
b100111101110111 H
b011101000 I
0M
b11 X
b100111101111000 BB
b100111101110110 CB
#1090
0clk
#1100
1clk
b11111111111111111111111111010010 cyc
1A
1B
b100111101110111 G
b100111101111000 H
1M
b00 X
b100111101111001 BB
b100111101110111 CB
b00000000001010100001000111101011 DB
#1110
0clk
#1120
1clk
b11111111111111111111111111010011 cyc
0A
0B
b100111101111000 G
b100111101111001 H
b000111011 I
b000000000 L
0N
b01 X
b100111101111010 BB
b100111101111000 CB
#1130
0clk
#1140
1clk
b11111111111111111111111111010100 cyc
1A
1B
b100111101111001 G
b100111101111010 H
1N
b10 X
b01000000 Z
b00000000 AB
b100111101111011 BB
b100111101111001 CB
b00000000001010100001000111101100 DB
#1150
0clk
#1160
1clk
b11111111111111111111111111010101 cyc
0A
0B
b100111101111010 G
b100111101111011 H
b100000000 I
0M
b11 X
b100111101111100 BB
b100111101111010 CB
#1170
0clk
#1180
1clk
b11111111111111111111111111010110 cyc
1A
1B
b100111101111011 G
b100111101111100 H
1M
b00 X
b100111101111101 BB
b100111101111011 CB
b00000000001010100001000111101101 DB
#1190
0clk
#1200
1clk
b11111111111111111111111111010111 cyc
0A
0B
b100111101111100 G
b100111101111101 H
b001000000 I
b000111100 L
0N
b01 X
b100111101111110 BB
b100111101111100 CB
#1210
0clk
#1220
1clk
b11111111111111111111111111011000 cyc
1A
1B
b100111101111101 G
b100111101111110 H
1N
b10 X
b00000110 Z
b01000000 AB
b100111101111111 BB
b100111101111101 CB
b00000000001010100001000111101110 DB
#1230
0clk
#1240
1clk
b11111111111111111111111111011001 cyc
0A
0B
b100111101111110 G
b100111101111111 H
b101000000 I
0M
b11 X
b100111110000000 BB
b100111101111110 CB
#1250
0clk
#1260
1clk
b11111111111111111111111111011010 cyc
1A
1B
b100111101111111 G
b100111110000000 H
1M
b00 X
b100111110000001 BB
b100111101111111 CB
b00000000001010100001000111101111 DB
#1270
0clk
#1280
1clk
b11111111111111111111111111011011 cyc
0A
0B
b100111110000000 G
b100111110000001 H
b000000110 I
b001111000 L
0N
b01 X
b100111110000010 BB
b100111110000000 CB
#1290
0clk
#1300
1clk
b11111111111111111111111111011100 cyc
1A
1B
b100111110000001 G
b100111110000010 H
1N
b10 X
b11000001 Z
b00001100 AB
b100111110000011 BB
b100111110000001 CB
b00000000001010100001000111110000 DB
#1310
0clk
#1320
1clk
b11111111111111111111111111011101 cyc
0A
0B
b100111110000010 G
b100111110000011 H
b000001100 I
0M
b11 X
b100111110000100 BB
b100111110000010 CB
#1330
0clk
#1340
1clk
b11111111111111111111111111011110 cyc
1A
1B
b100111110000011 G
b100111110000100 H
1M
b00 X
b100111110000101 BB
b100111110000011 CB
b00000000001010100001000111110001 DB
#1350
0clk
#1360
1clk
b11111111111111111111111111011111 cyc
0A
0B
b100111110000100 G
b100111110000101 H
b011000001 I
b010110100 L
0N
b01 X
b100111110000110 BB
b100111110000100 CB
#1370
0clk
#1380
1clk
b11111111111111111111111111100000 cyc
1A
1B
b100111110000101 G
b100111110000110 H
1N
b10 X
b11101101 Z
b11000011 AB
b100111110000111 BB
b100111110000101 CB
b00000000001010100001000111110010 DB
#1390
0clk
#1400
1clk
b11111111111111111111111111100001 cyc
0A
0B
b100111110000110 G
b100111110000111 H
b011000011 I
0M
b11 X
b100111110001000 BB
b100111110000110 CB
#1410
0clk
#1420
1clk
b11111111111111111111111111100010 cyc
1A
1B
b100111110000111 G
b100111110001000 H
1M
b00 X
b100111110001001 BB
b100111110000111 CB
b00000000001010100001000111110011 DB
#1430
0clk
#1440
1clk
b11111111111111111111111111100011 cyc
0A
0B
b100111110001000 G
b100111110001001 H
b011101101 I
b011110000 L
0N
b01 X
b100111110001010 BB
b100111110001000 CB
#1450
0clk
#1460
1clk
b11111111111111111111111111100100 cyc
1A
1B
b100111110001001 G
b100111110001010 H
1N
b10 X
b00111011 Z
b11101000 AB
b100111110001011 BB
b100111110001001 CB
b00000000001010100001000111110100 DB
#1470
0clk
#1480
1clk
b11111111111111111111111111100101 cyc
0A
0B
b100111110001010 G
b100111110001011 H
b011101000 I
0M
b11 X
b100111110001100 BB
b100111110001010 CB
#1490
0clk
#1500
1clk
b11111111111111111111111111100110 cyc
1A
1B
b100111110001011 G
b100111110001100 H
1M
b00 X
b100111110001101 BB
b100111110001011 CB
b00000000001010100001000111110101 DB
#1510
0clk
#1520
1clk
b11111111111111111111111111100111 cyc
0A
0B
b100111110001100 G
b100111110001101 H
b000111011 I
b000000000 L
0N
b01 X
b100111110001110 BB
b100111110001100 CB
#1530
0clk
#1540
1clk
b11111111111111111111111111101000 cyc
1A
1B
b100111110001101 G
b100111110001110 H
1N
b10 X
b01000000 Z
b00000000 AB
b100111110001111 BB
b100111110001101 CB
b00000000001010100001000111110110 DB
#1550
0clk
#1560
1clk
b11111111111111111111111111101001 cyc
0A
0B
b100111110001110 G
b100111110001111 H
b100000000 I
0M
b11 X
b100111110010000 BB
b100111110001110 CB
#1570
0clk
#1580
1clk
b11111111111111111111111111101010 cyc
1A
1B
b100111110001111 G
b100111110010000 H
1M
b00 X
b100111110010001 BB
b100111110001111 CB
b00000000001010100001000111110111 DB
#1590
0clk
#1600
1clk
b11111111111111111111111111101011 cyc
0A
0B
b100111110010000 G
b100111110010001 H
b001000000 I
b000111100 L
0N
b01 X
b100111110010010 BB
b100111110010000 CB
#1610
0clk
#1620
1clk
b11111111111111111111111111101100 cyc
1A
1B
b100111110010001 G
b100111110010010 H
1N
b10 X
b00000110 Z
b01000000 AB
b100111110010011 BB
b100111110010001 CB
b00000000001010100001000111111000 DB
#1630
0clk
#1640
1clk
b11111111111111111111111111101101 cyc
0A
0B
b100111110010010 G
b100111110010011 H
b101000000 I
0M
b11 X
b100111110010100 BB
b100111110010010 CB
#1650
0clk
#1660
1clk
b11111111111111111111111111101110 cyc
1A
1B
b100111110010011 G
b100111110010100 H
1M
b00 X
b100111110010101 BB
b100111110010011 CB
b00000000001010100001000111111001 DB
#1670
0clk
#1680
1clk
b11111111111111111111111111101111 cyc
0A
0B
b100111110010100 G
b100111110010101 H
b000000110 I
b001111000 L
0N
b01 X
b100111110010110 BB
b100111110010100 CB
#1690
0clk
#1700
1clk
b11111111111111111111111111110000 cyc
1A
1B
b100111110010101 G
b100111110010110 H
1N
b10 X
b11000001 Z
b00001100 AB
b100111110010111 BB
b100111110010101 CB
b00000000001010100001000111111010 DB
#1710
0clk
#1720
1clk
b11111111111111111111111111110001 cyc
0A
0B
b100111110010110 G
b100111110010111 H
b000001100 I
0M
b11 X
b100111110011000 BB
b100111110010110 CB
#1730
0clk
#1740
1clk
b11111111111111111111111111110010 cyc
1A
1B
b100111110010111 G
b100111110011000 H
1M
b00 X
b100111110011001 BB
b100111110010111 CB
b00000000001010100001000111111011 DB
#1750
0clk
#1760
1clk
b11111111111111111111111111110011 cyc
0A
0B
b100111110011000 G
b100111110011001 H
b011000001 I
b010110100 L
0N
b01 X
b100111110011010 BB
b100111110011000 CB
#1770
0clk
#1780
1clk
b11111111111111111111111111110100 cyc
1A
1B
b100111110011001 G
b100111110011010 H
1N
b10 X
b11101101 Z
b11000011 AB
b100111110011011 BB
b100111110011001 CB
b00000000001010100001000111111100 DB
#1790
0clk
#1800
1clk
b11111111111111111111111111110101 cyc
0A
0B
b100111110011010 G
b100111110011011 H
b011000011 I
0M
b11 X
b100111110011100 BB
b100111110011010 CB
#1810
0clk
#1820
1clk
b11111111111111111111111111110110 cyc
1A
1B
b100111110011011 G
b100111110011100 H
1M
b00 X
b100111110011101 BB
b100111110011011 CB
b00000000001010100001000111111101 DB
#1830
0clk
#1840
1clk
b11111111111111111111111111110111 cyc
0A
0B
b100111110011100 G
b100111110011101 H
b011101101 I
b011110000 L
0N
b01 X
b100111110011110 BB
b100111110011100 CB
#1850
0clk
#1860
1clk
b11111111111111111111111111111000 cyc
1A
1B
b100111110011101 G
b100111110011110 H
1N
b10 X
b00111011 Z
b11101000 AB
b100111110011111 BB
b100111110011101 CB
b00000000001010100001000111111110 DB
#1870
0clk
#1880
1clk
b11111111111111111111111111111001 cyc
0A
0B
b100111110011110 G
b100111110011111 H
b011101000 I
0M
b11 X
b100111110100000 BB
b100111110011110 CB
#1890
0clk
#1900
1clk
b11111111111111111111111111111010 cyc
1A
1B
b100111110011111 G
b100111110100000 H
1M
b00 X
b100111110100001 BB
b100111110011111 CB
b00000000001010100001000111111111 DB
#1910
0clk
#1920
1clk
b11111111111111111111111111111011 cyc
0A
0B
b100111110100000 G
b100111110100001 H
b000111011 I
b000000000 L
0N
b01 X
b100111110100010 BB
b100111110100000 CB
#1930
0clk
#1940
1clk
b11111111111111111111111111111100 cyc
1A
1B
b100111110100001 G
b100111110100010 H
1N
b10 X
b01000000 Z
b00000000 AB
b100111110100011 BB
b100111110100001 CB
b00000000001010100001001000000000 DB
#1950
0clk
#1960
1clk
b11111111111111111111111111111101 cyc
0A
0B
b100111110100010 G
b100111110100011 H
b100000000 I
0M
b11 X
b100111110100100 BB
b100111110100010 CB
#1970
0clk
#1980
1clk
b11111111111111111111111111111110 cyc
1A
1B
b100111110100011 G
b100111110100100 H
1M
b00 X
b100111110100101 BB
b100111110100011 CB
b00000000000000000000000000000000 DB
#1990
0clk
#2000
1clk
b11111111111111111111111111111111 cyc
0A
0B
b100111110100100 G
b100111110100101 H
b001000000 I
b000111100 L
0N
b01 X
b100111110100110 BB
b100111110100100 CB
#2010
0clk
#2020
1clk
b00000000000000000000000000000000 cyc
1A
1B
0E
0F
b100111110100101 G
b100111110100110 H
1N
b10 X
b00000110 Z
b01000000 AB
b100111110100111 BB
b100111110100101 CB
#2030
0clk
#2040
1clk
b00000000000000000000000000000001 cyc
0A
0B
b100111110100110 G
b100111110100111 H
b101000000 I
0M
b11 X
b100111110101000 BB
b100111110100110 CB
#2050
0clk
#2060
1clk
b00000000000000000000000000000010 cyc
1A
1B
b100111110100111 G
b100111110101000 H
1M
b00 X
b100111110101001 BB
b100111110100111 CB
b00001 EB
#2070
0clk
#2080
1clk
b00000000000000000000000000000011 cyc
0A
0B
b100111110101000 G
b100111110101001 H
b000000110 I
b001111000 L
0N
b01 X
b100111110101010 BB
b100111110101000 CB
#2090
0clk
#2100
1clk
b00000000000000000000000000000100 cyc
1A
1B
b100111110101001 G
b100111110101010 H
1N
b10 X
b11000001 Z
b00001100 AB
b100111110101011 BB
b100111110101001 CB
b00010 EB
#2110
0clk
#2120
1clk
b00000000000000000000000000000101 cyc
0A
0B
b100111110101010 G
b100111110101011 H
b000001100 I
0M
b11 X
b100111110101100 BB
b100111110101010 CB
#2130
0clk
#2140
1clk
b00000000000000000000000000000110 cyc
1A
1B
b100111110101011 G
b100111110101100 H
1M
b00 X
b100111110101101 BB
b100111110101011 CB
b00011 EB
#2150
0clk
#2160
1clk
b00000000000000000000000000000111 cyc
0A
0B
1F
b100111110101100 G
b100111110101101 H
b011000001 I
b010110100 L
0N
b01 X
b100111110101110 BB
b100111110101100 CB
#2170
0clk
#2180
1clk
b00000000000000000000000000001000 cyc
1A
1B
b100111110101101 G
b100111110101110 H
1N
b10 X
b11101101 Z
b11000011 AB
b100111110101111 BB
b100111110101101 CB
b00100 EB
#2190
0clk
#2200
1clk
b00000000000000000000000000001001 cyc
0A
0B
0F
b100111110101110 G
b100111110101111 H
b011000011 I
0M
b11 X
b100111110110000 BB
b100111110101110 CB
#2210
0clk
#2220
1clk
b00000000000000000000000000001010 cyc
1A
1B
b100111110101111 G
b100111110110000 H
1M
b00 X
b100111110110001 BB
b100111110101111 CB
b00101 EB
#2230
0clk
#2240
1clk
b00000000000000000000000000001011 cyc
0A
0B
b100111110110000 G
b100111110110001 H
b011101101 I
b011110000 L
0N
b01 X
b100111110110010 BB
b100111110110000 CB
#2250
0clk
#2260
1clk
b00000000000000000000000000001100 cyc
1A
1B
b100111110110001 G
b100111110110010 H
1N
b10 X
b00111011 Z
b11101000 AB
b100111110110011 BB
b100111110110001 CB
b00110 EB
#2270
0clk
#2280
1clk
b00000000000000000000000000001101 cyc
0A
0B
1F
b100111110110010 G
b100111110110011 H
b011101000 I
0M
b11 X
b100111110110100 BB
b100111110110010 CB
#2290
0clk
#2300
1clk
b00000000000000000000000000001110 cyc
1A
1B
b100111110110011 G
b100111110110100 H
1M
b00 X
b100111110110101 BB
b100111110110011 CB
b00111 EB
#2310
0clk
#2320
1clk
b00000000000000000000000000001111 cyc
0A
0B
0F
b100111110110100 G
b100111110110101 H
b000111011 I
b000000000 L
0N
b01 X
b100111110110110 BB
b100111110110100 CB
#2330
0clk
#2340
1clk
b00000000000000000000000000010000 cyc
1A
1B
b100111110110101 G
b100111110110110 H
1N
b10 X
b01000000 Z
b00000000 AB
b100111110110111 BB
b100111110110101 CB
b01000 EB
#2350
0clk
#2360
1clk
b00000000000000000000000000010001 cyc
0A
0B
b100111110110110 G
b100111110110111 H
b100000000 I
0M
b11 X
b100111110111000 BB
b100111110110110 CB
#2370
0clk
#2380
1clk
b00000000000000000000000000010010 cyc
1A
1B
b100111110110111 G
b100111110111000 H
1M
b00 X
b100111110111001 BB
b100111110110111 CB
b01001 EB
#2390
0clk
#2400
1clk
b00000000000000000000000000010011 cyc
0A
0B
1F
b100111110111000 G
b100111110111001 H
b001000000 I
b000111100 L
0N
b01 X
b100111110111010 BB
b100111110111000 CB
#2410
0clk
#2420
1clk
b00000000000000000000000000010100 cyc
1A
1B
b100111110111001 G
b100111110111010 H
1N
b10 X
b00000110 Z
b01000000 AB
b100111110111011 BB
b100111110111001 CB
b01010 EB
#2430
0clk
#2440
1clk
b00000000000000000000000000010101 cyc
0A
0B
b100111110111010 G
b100111110111011 H
b101000000 I
0M
b11 X
b100111110111100 BB
b100111110111010 CB
#2450
0clk
#2460
1clk
b00000000000000000000000000010110 cyc
1A
1B
b100111110111011 G
b100111110111100 H
1M
b00 X
b100111110111101 BB
b100111110111011 CB
b01011 EB
#2470
0clk
#2480
1clk
b00000000000000000000000000010111 cyc
0A
0B
0F
b100111110111100 G
b100111110111101 H
b000000110 I
b001111000 L
0N
b01 X
b100111110111110 BB
b100111110111100 CB
#2490
0clk
#2500
1clk
b00000000000000000000000000011000 cyc
1A
1B
b100111110111101 G
b100111110111110 H
1N
b10 X
b11000001 Z
b00001100 AB
b100111110111111 BB
b100111110111101 CB
b01100 EB
#2510
0clk
#2520
1clk
b00000000000000000000000000011001 cyc
0A
0B
1F
b100111110111110 G
b100111110111111 H
b000001100 I
0M
b11 X
b100111111000000 BB
b100111110111110 CB
#2530
0clk
#2540
1clk
b00000000000000000000000000011010 cyc
1A
1B
b100111110111111 G
b100111111000000 H
1M
b00 X
b100111111000001 BB
b100111110111111 CB
b01101 EB
b0001001001101000 FB
#2550
0clk
#2560
1clk
b00000000000000000000000000011011 cyc
0A
0B
0F
b100111111000000 G
b100111111000001 H
b011000001 I
b010110100 L
0N
b01 X
b100111111000010 BB
b100111111000000 CB
#2570
0clk
#2580
1clk
b00000000000000000000000000011100 cyc
1A
1B
b100111111000001 G
b100111111000010 H
1N
b10 X
b11101101 Z
b11000011 AB
b100111111000011 BB
b100111111000001 CB
b01110 EB
#2590
0clk
#2600
1clk
b00000000000000000000000000011101 cyc
0A
0B
b100111111000010 G
b100111111000011 H
b011000011 I
0M
b11 X
b100111111000100 BB
b100111111000010 CB
#2610
0clk
#2620
1clk
b00000000000000000000000000011110 cyc
1A
1B
b100111111000011 G
b100111111000100 H
1M
b00 X
b100111111000101 BB
b100111111000011 CB
b01111 EB
#2630
0clk
#2640
1clk
b00000000000000000000000000011111 cyc
0A
0B
b100111111000100 G
b100111111000101 H
b011101101 I
b011110000 L
0N
b01 X
b100111111000110 BB
b100111111000100 CB
#2650
0clk
#2660
1clk
b00000000000000000000000000100000 cyc
1A
1B
b100111111000101 G
b100111111000110 H
1N
b10 X
b00111011 Z
b11101000 AB
b100111111000111 BB
b100111111000101 CB
b10000 EB
#2670
0clk
#2680
1clk
b00000000000000000000000000100001 cyc
0A
0B
b100111111000110 G
b100111111000111 H
b011101000 I
0M
b11 X
b100111111001000 BB
b100111111000110 CB
#2690
0clk
#2700
1clk
b00000000000000000000000000100010 cyc
1A
1B
1E
b100111111000111 G
b100111111001000 H
1M
b00 X
b100111111001001 BB
b100111111000111 CB
b00000 EB
#2710
0clk
#2720
1clk
b00000000000000000000000000100011 cyc
0A
0B
b100111111001000 G
b100111111001001 H
b000111011 I
b000000000 L
0N
b01 X
b100111111001010 BB
b100111111001000 CB
#2730
0clk
